## Interface: 80200
## Title: Scrap Visualizer
## Notes: Load on demand panel for browsing trough junk lists.

## Author: Jaliborc (João Cardoso)
## X-License: GNU General Public License Version 3
## X-Category: Inventory
## Version: 13.19

## Dependencies: Scrap_Merchant
## LoadOnDemand: 1

Scrap_Visualizer.xml
Scrap_Visualizer.lua