## Interface: 80200
## Title: Scrap Options
## Notes: Load on demand options and tutorials.

## Author: Jaliborc (João Cardoso)
## X-License: GNU General Public License Version 3
## X-Category: Inventory
## Version: 13.19

## OptionalDeps: Poncho-1.0, Sushi-3.0, CustomTutorials-2.1
## Dependencies: Scrap
## LoadOnDemand: 1

..\Scrap\Libs\CustomTutorials-2.1\CustomTutorials-2.1.lua
..\Scrap\Libs\Poncho-1.0\Poncho-1.0.xml
..\Scrap\Libs\Sushi-3.0\Sushi-3.0.xml

Dropdown.lua
Options.lua
Tutorials.lua