## Interface: 80200
## Title: Scrap
## Notes: Sells all your junk at the merchant.

## Author: Jaliborc (João Cardoso)
## X-License: GNU General Public License Version 3
## X-Category: Inventory
## Version: 13.19

## SavedVariables: Scrap_SharedJunk, Scrap_AutoSell, Scrap_AutoRepair, Scrap_GuildRepair, Scrap_Safe, Scrap_Learn, Scrap_Glow, Scrap_Icons, Scrap_Tut, Scrap_Version
## SavedVariablesPerCharacter: Scrap_Junk, Scrap_AI, Scrap_LowEquip, Scrap_LowConsume, Scrap_Unusable, Scrap_ShareList
## OptionalDeps: LibStub, Unfit-1.0, WoWTest

Libs\LibStub\LibStub.lua
Libs\Unfit-1.0\Unfit-1.0.lua

Localization\en.lua
Localization\pt.lua
Localization\tw.lua
Localization\cn.lua
Localization\de.lua
Localization\es.lua
Localization\fr.lua
Localization\ru.lua
Localization\ko.lua

BaseList.lua
Scrap.lua
Options.lua

Tests.lua
