## Interface: 11302
## Author: Tukz
## X-Maintainer: Tukz & Azilroka & Hydra
## Version: 1.20
## Title: |cffff8000Tukui|r
## Notes: UI of awesomeness!
## SavedVariables: TukuiData, TukuiSettings, TukuiGold, TukuiSettingsPerCharacter, LibClassicMobHealth10DB, LibClassicMobHealth10Opt
## SavedVariablesPerCharacter: TukuiSettingsPerChar
## OptionalDeps: Clique
## X-oUF: TukuiUnitFrameFramework
## X-Website: http://www.tukui.org
## X-Tukui-ProjectID: 1
## X-Tukui-ProjectFolders: Tukui

Core\Init.lua
Config\Settings.lua
Libs\Init.xml
Medias\Medias.lua
Locales\Init.xml
Core\Init.xml
Config\Gui.lua
Modules\Init.xml
Themes\Init.xml
Core\Temp.lua