## Interface: 11302
## X-Min-Interface: 80200
## Title: GatherLite
## Author: Wuild
## Version: 1.3.3-classic
## OptionalDeps: GatherLite_Data, Ace3, LibStub, LibDataBroker-1.1, LibDBIcon-1.0, HereBeDragons, MBB
## Notes: GatherLite remembers where you found stuff
## SavedVariables: GatherLiteGlobalSettings GatherLiteConfig
## SavedVariablesPerCharacter: GatherLiteConfigCharacter

#embeds
embeds.xml

#main
GatherLite.lua
