## Interface: 11302
## Title: Classic Quest Log
## Notes: This addon restores the old quest log with the familiar list of quests on the left and details on the right.
## Author: Gello v Stanzilla
## Version: 1.4.6-Classic
## SavedVariables: ClassicQuestLogSettings
## SavedVariablesPerCharacter: ClassicQuestLogCollapsedHeaders

Classic Quest Log.xml
Classic Quest Log.lua
