## Interface: 80200
## Title: Scrap Merchant
## Notes: Load on demand merchant button.

## Author: Jaliborc (João Cardoso)
## X-License: GNU General Public License Version 3
## X-Category: Inventory
## Version: 13.19

## Dependencies: Scrap
## LoadOnDemand: 1

..\Scrap\Libs\SecureTabs-2.0\SecureTabs-2.0.lua
Scrap_Merchant.lua